## Interface: 60000
## Title: |cff1daa1dDajova|r Shared Media
## Version: 3.14
## Author: Azilroka, Sortokk, Dajova
## X-Tukui-ProjectID: 135
## X-Tukui-ProjectFolders: DSM

Libs\LibStub.lua
Libs\CallbackHandler-1.0.lua
Libs\LibSharedMedia-3.0.lua
Media.lua
